{
    "dev": {
        "awscloudformation": {
            "AuthRoleName": "amplify-ginratingapp-dev-73151-authRole",
            "UnauthRoleArn": "arn:aws:iam::895963771151:role/amplify-ginratingapp-dev-73151-unauthRole",
            "AuthRoleArn": "arn:aws:iam::895963771151:role/amplify-ginratingapp-dev-73151-authRole",
            "Region": "eu-central-1",
            "DeploymentBucketName": "amplify-ginratingapp-dev-73151-deployment",
            "UnauthRoleName": "amplify-ginratingapp-dev-73151-unauthRole",
            "StackName": "amplify-ginratingapp-dev-73151",
            "StackId": "arn:aws:cloudformation:eu-central-1:895963771151:stack/amplify-ginratingapp-dev-73151/8d9ace00-4031-11eb-b15a-02940e04d236",
            "AmplifyAppId": "d3i8ziu486jhl3"
        },
        "categories": {
            "auth": {
                "ginratingapp2e0d1872": {}
            }
        }
    }
}